﻿

#prejeck: stm8

#object:cd ./L1_IDU_MCP4131 &&iarbuild stm8_ysw_base.ewp -build  Debug&& cd ..

#output start: 
.\L1_IDU_MCP4131\Debug\Exe\*.bin
#output end;



///////////////////////////////////////////////////////////////////
==========================================================================================================================================================


软件项目信息：
项目名称	
项目编号	
软件料号	
最新变更日期	2019-08-26
最新处理人员	鄢圣巍
最新软件版本号	V1.01
最新内部版本号	V1.01
适用整机料号	无

==========================================================================================================================================================


/////////////////////////////////////////////////
L1降本 IDU